Host: ec2-3-220-86-239.compute-1.amazonaws.com
Database: d28974jn4lmfps
User: fbhytdnoyvywus
Port: 5432
Password: 81b538fcfc6987e938a70494a42556fb8d92c3de9d381cc738e6506f68537995
URI: postgres://fbhytdnoyvywus:81b538fcfc6987e938a70494a42556fb8d92c3de9d381cc738e6506f68537995@ec2-3-220-86-239.compute-1.amazonaws.com:5432/d28974jn4lmfps
Heroku cli: heroku pg:psql postgresql-contoured-86918 --app cotisse-p11-etu822-etu846