D:\etudes\S5\WebBddRelationnelle\CotisseETU822ETU846\cloudcotisse\java\CotisseJava\src\main\java\controller\RechercheController.java
D:\etudes\S5\WebBddRelationnelle\CotisseETU822ETU846\cloudcotisse\java\CotisseJava\src\main\java\controller\GestionToken.java
D:\etudes\S5\WebBddRelationnelle\CotisseETU822ETU846\cloudcotisse\java\CotisseJava\src\main\java\controller\VoyageController.java
D:\etudes\S5\WebBddRelationnelle\CotisseETU822ETU846\cloudcotisse\java\CotisseJava\src\main\java\Cotisse\Utilisateur.java
D:\etudes\S5\WebBddRelationnelle\CotisseETU822ETU846\cloudcotisse\java\CotisseJava\src\main\java\Cotisse\Chauffeur.java
D:\etudes\S5\WebBddRelationnelle\CotisseETU822ETU846\cloudcotisse\java\CotisseJava\src\main\java\Cotisse\ExtraReservation.java
D:\etudes\S5\WebBddRelationnelle\CotisseETU822ETU846\cloudcotisse\java\CotisseJava\src\main\java\outils\ManipulationDate.java
D:\etudes\S5\WebBddRelationnelle\CotisseETU822ETU846\cloudcotisse\java\CotisseJava\src\main\java\Cotisse\Paiement.java
D:\etudes\S5\WebBddRelationnelle\CotisseETU822ETU846\cloudcotisse\java\CotisseJava\src\main\java\controller\UserController.java
D:\etudes\S5\WebBddRelationnelle\CotisseETU822ETU846\cloudcotisse\java\CotisseJava\src\main\java\controller\ReservationController.java
D:\etudes\S5\WebBddRelationnelle\CotisseETU822ETU846\cloudcotisse\java\CotisseJava\src\main\java\outils\DaoService.java
D:\etudes\S5\WebBddRelationnelle\CotisseETU822ETU846\cloudcotisse\java\CotisseJava\src\main\java\Cotisse\DetailReservation.java
D:\etudes\S5\WebBddRelationnelle\CotisseETU822ETU846\cloudcotisse\java\CotisseJava\src\main\java\Cotisse\Trajet.java
D:\etudes\S5\WebBddRelationnelle\CotisseETU822ETU846\cloudcotisse\java\CotisseJava\src\main\java\Cotisse\ReservationClient.java
D:\etudes\S5\WebBddRelationnelle\CotisseETU822ETU846\cloudcotisse\java\CotisseJava\src\main\java\Cotisse\Reservation.java
D:\etudes\S5\WebBddRelationnelle\CotisseETU822ETU846\cloudcotisse\java\CotisseJava\src\main\java\Cotisse\Role.java
D:\etudes\S5\WebBddRelationnelle\CotisseETU822ETU846\cloudcotisse\java\CotisseJava\src\main\java\outils\Test.java
D:\etudes\S5\WebBddRelationnelle\CotisseETU822ETU846\cloudcotisse\java\CotisseJava\src\main\java\Cotisse\DetailVoyage.java
D:\etudes\S5\WebBddRelationnelle\CotisseETU822ETU846\cloudcotisse\java\CotisseJava\src\main\java\exceptions\TokenException.java
D:\etudes\S5\WebBddRelationnelle\CotisseETU822ETU846\cloudcotisse\java\CotisseJava\src\main\java\outils\Dbconnection.java
D:\etudes\S5\WebBddRelationnelle\CotisseETU822ETU846\cloudcotisse\java\CotisseJava\src\main\java\Cotisse\Extras.java
D:\etudes\S5\WebBddRelationnelle\CotisseETU822ETU846\cloudcotisse\java\CotisseJava\src\main\java\Cotisse\Vehicule.java
D:\etudes\S5\WebBddRelationnelle\CotisseETU822ETU846\cloudcotisse\java\CotisseJava\src\main\java\Cotisse\Voyage.java
D:\etudes\S5\WebBddRelationnelle\CotisseETU822ETU846\cloudcotisse\java\CotisseJava\src\main\java\controller\InfosController.java
D:\etudes\S5\WebBddRelationnelle\CotisseETU822ETU846\cloudcotisse\java\CotisseJava\src\main\java\controller\CORSFilter.java
D:\etudes\S5\WebBddRelationnelle\CotisseETU822ETU846\cloudcotisse\java\CotisseJava\src\main\java\controller\TrajetController.java
D:\etudes\S5\WebBddRelationnelle\CotisseETU822ETU846\cloudcotisse\java\CotisseJava\src\main\java\Cotisse\Erreur.java
D:\etudes\S5\WebBddRelationnelle\CotisseETU822ETU846\cloudcotisse\java\CotisseJava\src\main\java\outils\EncryptService.java
D:\etudes\S5\WebBddRelationnelle\CotisseETU822ETU846\cloudcotisse\java\CotisseJava\src\main\java\Cotisse\Token.java
D:\etudes\S5\WebBddRelationnelle\CotisseETU822ETU846\cloudcotisse\java\CotisseJava\src\main\java\com\mycompany\cotissejava\ConnexionServlet.java
